^C:\USERS\USER\DROPBOX\MOJSTRINGCPLUSPLUS\MOJSTRING\MOJSTRING\MAIN.CPP|C:\USERS\USER\DROPBOX\MOJSTRINGCPLUSPLUS\MOJSTRING\MOJSTRING\MYSTRING.CPP
C:\USERS\USER\DROPBOX\MOJSTRINGCPLUSPLUS\MOJSTRING\MOJSTRING\X64\DEBUG\VC143.PDB
C:\USERS\USER\DROPBOX\MOJSTRINGCPLUSPLUS\MOJSTRING\MOJSTRING\X64\DEBUG\VC143.IDB
C:\USERS\USER\DROPBOX\MOJSTRINGCPLUSPLUS\MOJSTRING\MOJSTRING\X64\DEBUG\MAIN.OBJ
C:\USERS\USER\DROPBOX\MOJSTRINGCPLUSPLUS\MOJSTRING\MOJSTRING\X64\DEBUG\MYSTRING.OBJ
^C:\USERS\USER\DROPBOX\MOJSTRINGCPLUSPLUS\MOJSTRING\MOJSTRING\MYSTRING.CPP
C:\USERS\USER\DROPBOX\MOJSTRINGCPLUSPLUS\MOJSTRING\MOJSTRING\X64\DEBUG\VC143.PDB
^C:\USERS\USER\DROPBOX\MOJSTRINGCPLUSPLUS\MOJSTRING\MOJSTRING\MAIN.CPP
C:\USERS\USER\DROPBOX\MOJSTRINGCPLUSPLUS\MOJSTRING\MOJSTRING\X64\DEBUG\VC143.PDB
